{
  "appName": {
    "message": "LinkedData inspector",
    "description": "The name of the application"
  },
  "appShortName": {
    "message": "LinkedDataInsp",
    "description": "The short_name (maximum of 12 characters recommended) is a short version of the app's name."
  },
  "appDescription": {
    "message": "Extension to help to explore the Semantic Web by showing websites providing linked data and allowing it's inspection.",
    "description": "The description of the application"
  },
  "browserActionTitle": {
    "message": "LinkedData inspector",
    "description": "The title of the browser action button"
  }
}
